%YAML 1.1
%TAG !u! tag:unity3d.com,2011:
--- !u!114 &11400000
MonoBehaviour:
  m_ObjectHideFlags: 0
  m_CorrespondingSourceObject: {fileID: 0}
  m_PrefabInstance: {fileID: 0}
  m_PrefabAsset: {fileID: 0}
  m_GameObject: {fileID: 0}
  m_Enabled: 1
  m_EditorHideFlags: 0
  m_Script: {fileID: 11500000, guid: e7466e541f33e4dd1b494ce34f9ca552, type: 3}
  m_Name: pinch
  m_EditorClassIdentifier: 
  showFoldout: 1
  font: {fileID: 12800000, guid: ef966300297694120811688c961eb997, type: 2}
  overrideQuality: 0
  quality: 7
  overrideFilterMode: 0
  filterMode: 0
