%YAML 1.1
%TAG !u! tag:unity3d.com,2011:
--- !u!114 &6813061328907946895
MonoBehaviour:
  m_ObjectHideFlags: 0
  m_CorrespondingSourceObject: {fileID: 0}
  m_PrefabInstance: {fileID: 0}
  m_PrefabAsset: {fileID: 0}
  m_GameObject: {fileID: 181823877006378752}
  m_Enabled: 1
  m_EditorHideFlags: 0
  m_Script: {fileID: 11500000, guid: 99da313930dd91d48a7608b48e3d17be, type: 3}
  m_Name: 
  m_EditorClassIdentifier: 
  owDir: 0
  prevDir: 0
  beingMoved: 0
  windowSkin: 0
  nameSkin: 0
  hair: 0
  top: 0
  bottom: 0
  npcMat: {fileID: 0}
--- !u!1001 &214906020179981708
PrefabInstance:
  m_ObjectHideFlags: 0
  serializedVersion: 2
  m_Modification:
    m_TransformParent: {fileID: 0}
    m_Modifications:
    - target: {fileID: 35615626807341708, guid: 22266bc925fd51340986a02802b987b3,
        type: 3}
      propertyPath: m_Name
      value: NPC Shop A
      objectReference: {fileID: 0}
    - target: {fileID: 35615626807341713, guid: 22266bc925fd51340986a02802b987b3,
        type: 3}
      propertyPath: m_LocalPosition.x
      value: 0
      objectReference: {fileID: 0}
    - target: {fileID: 35615626807341713, guid: 22266bc925fd51340986a02802b987b3,
        type: 3}
      propertyPath: m_LocalPosition.y
      value: 0
      objectReference: {fileID: 0}
    - target: {fileID: 35615626807341713, guid: 22266bc925fd51340986a02802b987b3,
        type: 3}
      propertyPath: m_LocalPosition.z
      value: 0
      objectReference: {fileID: 0}
    - target: {fileID: 35615626807341713, guid: 22266bc925fd51340986a02802b987b3,
        type: 3}
      propertyPath: m_LocalRotation.x
      value: -0
      objectReference: {fileID: 0}
    - target: {fileID: 35615626807341713, guid: 22266bc925fd51340986a02802b987b3,
        type: 3}
      propertyPath: m_LocalRotation.y
      value: -0
      objectReference: {fileID: 0}
    - target: {fileID: 35615626807341713, guid: 22266bc925fd51340986a02802b987b3,
        type: 3}
      propertyPath: m_LocalRotation.z
      value: -0
      objectReference: {fileID: 0}
    - target: {fileID: 35615626807341713, guid: 22266bc925fd51340986a02802b987b3,
        type: 3}
      propertyPath: m_LocalRotation.w
      value: 1
      objectReference: {fileID: 0}
    - target: {fileID: 35615626807341713, guid: 22266bc925fd51340986a02802b987b3,
        type: 3}
      propertyPath: m_RootOrder
      value: 0
      objectReference: {fileID: 0}
    - target: {fileID: 35615626807341713, guid: 22266bc925fd51340986a02802b987b3,
        type: 3}
      propertyPath: m_LocalEulerAnglesHint.x
      value: 0
      objectReference: {fileID: 0}
    - target: {fileID: 35615626807341713, guid: 22266bc925fd51340986a02802b987b3,
        type: 3}
      propertyPath: m_LocalEulerAnglesHint.y
      value: 0
      objectReference: {fileID: 0}
    - target: {fileID: 35615626807341713, guid: 22266bc925fd51340986a02802b987b3,
        type: 3}
      propertyPath: m_LocalEulerAnglesHint.z
      value: 0
      objectReference: {fileID: 0}
    - target: {fileID: 35615626286711396, guid: 22266bc925fd51340986a02802b987b3,
        type: 3}
      propertyPath: m_Sprite
      value: 
      objectReference: {fileID: 21300000, guid: 38e72f79dc77b734487b45b274e0537e,
        type: 3}
    m_RemovedComponents: []
  m_SourcePrefab: {fileID: 100100000, guid: 22266bc925fd51340986a02802b987b3, type: 3}
--- !u!1 &181823877006378752 stripped
GameObject:
  m_CorrespondingSourceObject: {fileID: 35615626807341708, guid: 22266bc925fd51340986a02802b987b3,
    type: 3}
  m_PrefabInstance: {fileID: 214906020179981708}
  m_PrefabAsset: {fileID: 0}
