%YAML 1.1
%TAG !u! tag:unity3d.com,2011:
--- !u!114 &11400000
MonoBehaviour:
  m_ObjectHideFlags: 0
  m_CorrespondingSourceObject: {fileID: 0}
  m_PrefabInstance: {fileID: 0}
  m_PrefabAsset: {fileID: 0}
  m_GameObject: {fileID: 0}
  m_Enabled: 1
  m_EditorHideFlags: 0
  m_Script: {fileID: 11500000, guid: ac9ada15d036b479288f481d8aa0d939, type: 3}
  m_Name: default
  m_EditorClassIdentifier: 
  showFoldout: 1
  material: {fileID: 2100000, guid: e490a80c3724140c0ad176edb075a09e, type: 2}
